@startuml
class Character {
+name : String [1]
+inventory : Item [*]
+pet : Pet [0..1]
}
@enduml

@startuml
class Character {
}
Character "1" -> "1" String : +name
Item "*" <- "0..1" Character : +inventory
Character "1" --> "0..1" Pet : +pet
@enduml
