@startuml

participant Jardi
participant Altibus
participant Planta
participant Llavor

[o-> Jardi : temps
activate Jardi
    Jardi -> Altibus : creix
    activate Altibus
        Altibus -> Planta : creix
        activate Planta
            Altibus <-- Planta
        deactivate Planta
        Altibus -> Llavor : Llavor
        activate Llavor
            Altibus <-- Llavor
        deactivate Llavor
        Jardi <-- Altibus
    deactivate Altibus
    Jardi -> Planta : escampaLlavor
    activate Planta
        Jardi <-- Planta
    deactivate Planta
deactivate Jardi

@enduml
